…
                          str_detect(icd10, icd10_regexps['flu']) ~
                             "Flu",
                          str_detect(icd10, icd10_regexps['amenable']) ~
                              "HC_amenable_not_flu",
                         TRUE ~ as.character(icd10) # (not caught by any of above
                         )                          # conditions; shouldn't occur)
           ) -> mort_tall
c_o_d_cats  <- unique(mort_tall$c_o_d_cat)
stopifnot(length(c_o_d_cats)==4)
mort_tall %>% filter(year >=2008, year <=2013) %>%
    group_by(year, c_o_d_cat) %>%
    summarise(deaths=sum(freq))
```

    ## # A tibble: 24 x 3
    ## # Groups:   year [6]
    ##     year c_o_d_cat             deaths
    ##    <dbl> <chr>                  <dbl>
    ##  1  2008 Flu                     7380
    ##  2  2008 HC_amenable_not_flu   390350
    ##  3  2008 HC_unamnbl_not_opioid 189630
    ##  4  2008 Opioid                 33800
    ##  5  2009 Flu                     9433
    ##  6  2009 HC_amenable_not_flu   393428
    ##  7  2009 HC_unamnbl_not_opioid 189712
    ##  8  2009 Opioid                 34365
    ##  9  2010 Flu                     6844
    ## 10  2010 HC_amenable_not_flu   392641
    ## # … with 14 more rows
…
